%YAML 1.1
%TAG !u! tag:unity3d.com,2011:
--- !u!114 &11400000
MonoBehaviour:
  m_ObjectHideFlags: 0
  m_CorrespondingSourceObject: {fileID: 0}
  m_PrefabInstance: {fileID: 0}
  m_PrefabAsset: {fileID: 0}
  m_GameObject: {fileID: 0}
  m_Enabled: 1
  m_EditorHideFlags: 0
  m_Script: {fileID: 11500000, guid: ed5f96c5ac3c42f0ab9893c26afcdce6, type: 3}
  m_Name: LayerMask
  m_EditorClassIdentifier: 
  layerMask:
    serializedVersion: 2
    m_Bits: 179
